[
  {
    "jsonrpc": "2.0",
    "result": {
      "company": {
        "id": "1035193",
        "reg_num": "264.110.01268",
        "name_am": "«ՀԵԼԻՔՍ ԿՈՆՍԱԼՏԻՆԳ»",
        "name_en": "",
        "name_ru": "",
        "company_type_id": "110",
        "taxid": "1234567899",
        "industry_code": "96.09.0",
        "capital": "0",
        "cert_num": "03Ա1035193",
        "zcode": "28516662",
        "soc_num": "45111268",
        "inactive": "0",
        "is_blocked": 0,
        "registered": "1995-05-25",
        "address": {
          "street1": "ՎՐԱՑԱԿԱՆ 4ՆՐԲ.",
          "house": "7",
          "house_type": "",
          "apt": "10",
          "street2": "",
          "city_town": "ԱՐԱԲԿԻՐ",
          "postcode": "0012",
          "province": "ԵՐԵՎԱՆ",
          "community": "",
          "country_id": "AM",
          "phone": "233183",
          "mobile": "",
          "email": "",
          "website": "",
          "addr_descr": "Հայաստան, ԵՐԵՎԱՆ, ԱՐԱԲԿԻՐ, ՎՐԱՑԱԿԱՆ 4ՆՐԲ., 7, Բն. 10, 0051",
          "diff_from_res": 0
        },
        "company_type": "ՍՊԸ",
        "company_type_long": "Սահմանափակ պատասխանատվությամբ ընկերություն",
        "registration": "Permanent",
        "executive": {
          "full_name": "ԱՐԱՄ ՄԽԻԹԱՐՅԱՆ ԼԵՎՈՆԻ",
          "first_name": "ԱՐԱՄ",
          "last_name": "ՄԽԻԹԱՐՅԱՆ",
          "middle_name": "ԼԵՎՈՆԻ",
          "nationality_country_id": "AM",
          "identification_no": "AH0576825",
          "ssn": "1903820146",
          "address": {
            "street1": "ՎՐԱՑԱԿԱՆ 4 ՆՐԲ.",
            "house": "7",
            "house_type": "Շ",
            "apt": "10",
            "street2": "",
            "city_town": "ԱՐԱԲԿԻՐ",
            "postcode": "0012",
            "province": "ԵՐԵՎԱՆ",
            "community": "",
            "country_id": "AM",
            "phone": "095203078",
            "mobile": "",
            "email": "",
            "website": "",
            "addr_descr": "ՀԱՅԱՍՏԱՆ, ԵՐԵՎԱՆ, ԱՐԱԲԿԻՐ, ՎՐԱՑԱԿԱՆ 4 ՆՐԲ., Շ 7, Բն. 10",
            "diff_from_res": 0
          },
          "id_info": {
            "ssn": "1903820146",
            "birth_date": "1982-03-09",
            "sex": "Ա",
            "type": "NON_BIOMETRIC_PASSPORT",
            "passport_no": "AH0576825",
            "passport_issued_by": "004",
            "passport_issued": "2008-05-04",
            "taxid": "",
            "soc_num": "",
            "zcode": "",
            "hide_ssn": "0",
            "reg_date": ""
          },
          "exec_position": "Տնօրեն"
        },
        "owners": {
          "6116969": {
            "full_name": "ՄԽԻԹԱՐՅԱՆ ԱՐԱՄ",
            "first_name": "ՄԽԻԹԱՐՅԱՆ ԱՐԱՄ",
            "last_name": "",
            "middle_name": "",
            "nationality_country_id": "AM",
            "identification_no": "AH0576825",
            "ssn": "1903820146",
            "address": {
              "street1": "ՎՐԱՑԱԿԱՆ 4ՆՐԲ.7-10",
              "house": "",
              "house_type": "",
              "apt": "",
              "street2": "",
              "city_town": "",
              "postcode": "",
              "province": "",
              "community": "",
              "country_id": "AM",
              "phone": "",
              "mobile": "",
              "email": "",
              "website": "",
              "addr_descr": "",
              "diff_from_res": 0
            },
            "id_info": {
              "ssn": "1903820146",
              "birth_date": "1982-03-09",
              "sex": "Ա",
              "type": "",
              "passport_no": "AH0576825",
              "passport_issued_by": "004",
              "passport_issued": "2008-05-04",
              "taxid": "",
              "soc_num": "",
              "zcode": "",
              "hide_ssn": "",
              "reg_date": ""
            },
            "shares": 50000,
            "is_legal_entity": false,
            "resident": "resident",
            "is_founder": false,
            "joined_date": "2006-06-27",
            "left_date": "0000-00-00",
            "owner_cert_id": "",
            "id_num": 111570,
            "is_blocked": "0"
          }
        }
      }
    },
    "id": 1234
  },

  {
    "jsonrpc": "2.0",
    "result": {
      "company": {
        "id": "1035193",
        "reg_num": "264.110.01268",
        "name_am": "«GooD Company»",
        "name_en": "",
        "name_ru": "",
        "company_type_id": "110",
        "taxid": "1111111111",
        "industry_code": "96.09.0",
        "capital": "0",
        "cert_num": "03Ա1035193",
        "zcode": "28516662",
        "soc_num": "45111268",
        "inactive": "0",
        "is_blocked": 0,
        "registered": "1995-05-25",
        "address": {
          "street1": "ՎՐԱՑԱԿԱՆ 4ՆՐԲ.",
          "house": "7",
          "house_type": "",
          "apt": "10",
          "street2": "",
          "city_town": "ԱՐԱԲԿԻՐ",
          "postcode": "0012",
          "province": "ԵՐԵՎԱՆ",
          "community": "",
          "country_id": "AM",
          "phone": "233183",
          "mobile": "",
          "email": "",
          "website": "",
          "addr_descr": "Հայաստան, ԵՐԵՎԱՆ, ԱՐԱԲԿԻՐ, ՎՐԱՑԱԿԱՆ 4ՆՐԲ., 7, Բն. 10, 0051",
          "diff_from_res": 0
        },
        "company_type": "ՍՊԸ",
        "company_type_long": "Սահմանափակ պատասխանատվությամբ ընկերություն",
        "registration": "Permanent",
        "executive": {
          "full_name": "ԱՐԱՄ ՄԽԻԹԱՐՅԱՆ ԼԵՎՈՆԻ",
          "first_name": "ԱՐԱՄ",
          "last_name": "ՄԽԻԹԱՐՅԱՆ",
          "middle_name": "ԼԵՎՈՆԻ",
          "nationality_country_id": "AM",
          "identification_no": "AH0576825",
          "ssn": "1903820146",
          "address": {
            "street1": "ՎՐԱՑԱԿԱՆ 4 ՆՐԲ.",
            "house": "7",
            "house_type": "Շ",
            "apt": "10",
            "street2": "",
            "city_town": "ԱՐԱԲԿԻՐ",
            "postcode": "0012",
            "province": "ԵՐԵՎԱՆ",
            "community": "",
            "country_id": "AM",
            "phone": "095203078",
            "mobile": "",
            "email": "",
            "website": "",
            "addr_descr": "ՀԱՅԱՍՏԱՆ, ԵՐԵՎԱՆ, ԱՐԱԲԿԻՐ, ՎՐԱՑԱԿԱՆ 4 ՆՐԲ., Շ 7, Բն. 10",
            "diff_from_res": 0
          },
          "id_info": {
            "ssn": "1903820146",
            "birth_date": "1982-03-09",
            "sex": "Ա",
            "type": "NON_BIOMETRIC_PASSPORT",
            "passport_no": "AH0576825",
            "passport_issued_by": "004",
            "passport_issued": "2008-05-04",
            "taxid": "",
            "soc_num": "",
            "zcode": "",
            "hide_ssn": "0",
            "reg_date": ""
          },
          "exec_position": "Տնօրեն"
        },
        "owners": {
          "6116969": {
            "full_name": "ՄԽԻԹԱՐՅԱՆ ԱՐԱՄ",
            "first_name": "ՄԽԻԹԱՐՅԱՆ ԱՐԱՄ",
            "last_name": "",
            "middle_name": "",
            "nationality_country_id": "AM",
            "identification_no": "AH0576825",
            "ssn": "1903820146",
            "address": {
              "street1": "ՎՐԱՑԱԿԱՆ 4ՆՐԲ.7-10",
              "house": "",
              "house_type": "",
              "apt": "",
              "street2": "",
              "city_town": "",
              "postcode": "",
              "province": "",
              "community": "",
              "country_id": "AM",
              "phone": "",
              "mobile": "",
              "email": "",
              "website": "",
              "addr_descr": "",
              "diff_from_res": 0
            },
            "id_info": {
              "ssn": "1903820146",
              "birth_date": "1982-03-09",
              "sex": "Ա",
              "type": "",
              "passport_no": "AH0576825",
              "passport_issued_by": "004",
              "passport_issued": "2008-05-04",
              "taxid": "",
              "soc_num": "",
              "zcode": "",
              "hide_ssn": "",
              "reg_date": ""
            },
            "shares": 50000,
            "is_legal_entity": false,
            "resident": "resident",
            "is_founder": false,
            "joined_date": "2006-06-27",
            "left_date": "0000-00-00",
            "owner_cert_id": "",
            "id_num": 111570,
            "is_blocked": "0"
          }
        }
      }
    },
    "id": 1235
  },






  {
    "jsonrpc": "2.0",
    "result": {
      "company": {
        "id": "1035193",
        "reg_num": "264.110.01268",
        "name_am": "«Google»",
        "name_en": "",
        "name_ru": "",
        "company_type_id": "110",
        "taxid": "6543216788",
        "industry_code": "96.09.0",
        "capital": "0",
        "cert_num": "03Ա1035193",
        "zcode": "28516662",
        "soc_num": "45111268",
        "inactive": "0",
        "is_blocked": 0,
        "registered": "1995-05-25",
        "address": {
          "street1": "ՎՐԱՑԱԿԱՆ 4ՆՐԲ.",
          "house": "7",
          "house_type": "",
          "apt": "10",
          "street2": "",
          "city_town": "ԱՐԱԲԿԻՐ",
          "postcode": "0012",
          "province": "ԵՐԵՎԱՆ",
          "community": "",
          "country_id": "AM",
          "phone": "233183",
          "mobile": "",
          "email": "",
          "website": "",
          "addr_descr": "Հայաստան, ԵՐԵՎԱՆ, ԱՐԱԲԿԻՐ, ՎՐԱՑԱԿԱՆ 4ՆՐԲ., 7, Բն. 10, 0051",
          "diff_from_res": 0
        },
        "company_type": "ՍՊԸ",
        "company_type_long": "Սահմանափակ պատասխանատվությամբ ընկերություն",
        "registration": "Permanent",
        "executive": {
          "full_name": "ԱՐԱՄ ՄԽԻԹԱՐՅԱՆ ԼԵՎՈՆԻ",
          "first_name": "ԱՐԱՄ",
          "last_name": "ՄԽԻԹԱՐՅԱՆ",
          "middle_name": "ԼԵՎՈՆԻ",
          "nationality_country_id": "AM",
          "identification_no": "AH0576825",
          "ssn": "1903820146",
          "address": {
            "street1": "ՎՐԱՑԱԿԱՆ 4 ՆՐԲ.",
            "house": "7",
            "house_type": "Շ",
            "apt": "10",
            "street2": "",
            "city_town": "ԱՐԱԲԿԻՐ",
            "postcode": "0012",
            "province": "ԵՐԵՎԱՆ",
            "community": "",
            "country_id": "AM",
            "phone": "095203078",
            "mobile": "",
            "email": "",
            "website": "",
            "addr_descr": "ՀԱՅԱՍՏԱՆ, ԵՐԵՎԱՆ, ԱՐԱԲԿԻՐ, ՎՐԱՑԱԿԱՆ 4 ՆՐԲ., Շ 7, Բն. 10",
            "diff_from_res": 0
          },
          "id_info": {
            "ssn": "1903820146",
            "birth_date": "1982-03-09",
            "sex": "Ա",
            "type": "NON_BIOMETRIC_PASSPORT",
            "passport_no": "AH0576825",
            "passport_issued_by": "004",
            "passport_issued": "2008-05-04",
            "taxid": "",
            "soc_num": "",
            "zcode": "",
            "hide_ssn": "0",
            "reg_date": ""
          },
          "exec_position": "Տնօրեն"
        },
        "owners": {
          "6116969": {
            "full_name": "ՄԽԻԹԱՐՅԱՆ ԱՐԱՄ",
            "first_name": "ՄԽԻԹԱՐՅԱՆ ԱՐԱՄ",
            "last_name": "",
            "middle_name": "",
            "nationality_country_id": "AM",
            "identification_no": "AH0576825",
            "ssn": "1903820146",
            "address": {
              "street1": "ՎՐԱՑԱԿԱՆ 4ՆՐԲ.7-10",
              "house": "",
              "house_type": "",
              "apt": "",
              "street2": "",
              "city_town": "",
              "postcode": "",
              "province": "",
              "community": "",
              "country_id": "AM",
              "phone": "",
              "mobile": "",
              "email": "",
              "website": "",
              "addr_descr": "",
              "diff_from_res": 0
            },
            "id_info": {
              "ssn": "1903820146",
              "birth_date": "1982-03-09",
              "sex": "Ա",
              "type": "",
              "passport_no": "AH0576825",
              "passport_issued_by": "004",
              "passport_issued": "2008-05-04",
              "taxid": "",
              "soc_num": "",
              "zcode": "",
              "hide_ssn": "",
              "reg_date": ""
            },
            "shares": 50000,
            "is_legal_entity": false,
            "resident": "resident",
            "is_founder": false,
            "joined_date": "2006-06-27",
            "left_date": "0000-00-00",
            "owner_cert_id": "",
            "id_num": 111570,
            "is_blocked": "0"
          }
        }
      }
    },
    "id": 1236
  },



  {
    "jsonrpc": "2.0",
    "result": {
      "company": {
        "id": "1035193",
        "reg_num": "264.110.01268",
        "name_am": "«Ebay»",
        "name_en": "",
        "name_ru": "",
        "company_type_id": "110",
        "taxid": "1234567891",
        "industry_code": "96.09.0",
        "capital": "0",
        "cert_num": "03Ա1035193",
        "zcode": "28516662",
        "soc_num": "45111268",
        "inactive": "0",
        "is_blocked": 0,
        "registered": "1995-05-25",
        "address": {
          "street1": "ՎՐԱՑԱԿԱՆ 4ՆՐԲ.",
          "house": "7",
          "house_type": "",
          "apt": "10",
          "street2": "",
          "city_town": "ԱՐԱԲԿԻՐ",
          "postcode": "0012",
          "province": "ԵՐԵՎԱՆ",
          "community": "",
          "country_id": "AM",
          "phone": "233183",
          "mobile": "",
          "email": "",
          "website": "",
          "addr_descr": "Հայաստան, ԵՐԵՎԱՆ, ԱՐԱԲԿԻՐ, ՎՐԱՑԱԿԱՆ 4ՆՐԲ., 7, Բն. 10, 0051",
          "diff_from_res": 0
        },
        "company_type": "ՍՊԸ",
        "company_type_long": "Սահմանափակ պատասխանատվությամբ ընկերություն",
        "registration": "Permanent",
        "executive": {
          "full_name": "ԱՐԱՄ ՄԽԻԹԱՐՅԱՆ ԼԵՎՈՆԻ",
          "first_name": "ԱՐԱՄ",
          "last_name": "ՄԽԻԹԱՐՅԱՆ",
          "middle_name": "ԼԵՎՈՆԻ",
          "nationality_country_id": "AM",
          "identification_no": "AH0576825",
          "ssn": "1903820146",
          "address": {
            "street1": "ՎՐԱՑԱԿԱՆ 4 ՆՐԲ.",
            "house": "7",
            "house_type": "Շ",
            "apt": "10",
            "street2": "",
            "city_town": "ԱՐԱԲԿԻՐ",
            "postcode": "0012",
            "province": "ԵՐԵՎԱՆ",
            "community": "",
            "country_id": "AM",
            "phone": "095203078",
            "mobile": "",
            "email": "",
            "website": "",
            "addr_descr": "ՀԱՅԱՍՏԱՆ, ԵՐԵՎԱՆ, ԱՐԱԲԿԻՐ, ՎՐԱՑԱԿԱՆ 4 ՆՐԲ., Շ 7, Բն. 10",
            "diff_from_res": 0
          },
          "id_info": {
            "ssn": "1903820146",
            "birth_date": "1982-03-09",
            "sex": "Ա",
            "type": "NON_BIOMETRIC_PASSPORT",
            "passport_no": "AH0576825",
            "passport_issued_by": "004",
            "passport_issued": "2008-05-04",
            "taxid": "",
            "soc_num": "",
            "zcode": "",
            "hide_ssn": "0",
            "reg_date": ""
          },
          "exec_position": "Տնօրեն"
        },
        "owners": {
          "6116969": {
            "full_name": "ՄԽԻԹԱՐՅԱՆ ԱՐԱՄ",
            "first_name": "ՄԽԻԹԱՐՅԱՆ ԱՐԱՄ",
            "last_name": "",
            "middle_name": "",
            "nationality_country_id": "AM",
            "identification_no": "AH0576825",
            "ssn": "1903820146",
            "address": {
              "street1": "ՎՐԱՑԱԿԱՆ 4ՆՐԲ.7-10",
              "house": "",
              "house_type": "",
              "apt": "",
              "street2": "",
              "city_town": "",
              "postcode": "",
              "province": "",
              "community": "",
              "country_id": "AM",
              "phone": "",
              "mobile": "",
              "email": "",
              "website": "",
              "addr_descr": "",
              "diff_from_res": 0
            },
            "id_info": {
              "ssn": "1903820146",
              "birth_date": "1982-03-09",
              "sex": "Ա",
              "type": "",
              "passport_no": "AH0576825",
              "passport_issued_by": "004",
              "passport_issued": "2008-05-04",
              "taxid": "",
              "soc_num": "",
              "zcode": "",
              "hide_ssn": "",
              "reg_date": ""
            },
            "shares": 50000,
            "is_legal_entity": false,
            "resident": "resident",
            "is_founder": false,
            "joined_date": "2006-06-27",
            "left_date": "0000-00-00",
            "owner_cert_id": "",
            "id_num": 111570,
            "is_blocked": "0"
          }
        }
      }
    },
    "id": 1237
  },



  {
    "jsonrpc": "2.0",
    "result": {
      "company": {
        "id": "1035193",
        "reg_num": "264.110.01268",
        "name_am": "«Amazon»",
        "name_en": "",
        "name_ru": "",
        "company_type_id": "110",
        "taxid": "3331114447",
        "industry_code": "96.09.0",
        "capital": "0",
        "cert_num": "03Ա1035193",
        "zcode": "28516662",
        "soc_num": "45111268",
        "inactive": "0",
        "is_blocked": 0,
        "registered": "1995-05-25",
        "address": {
          "street1": "ՎՐԱՑԱԿԱՆ 4ՆՐԲ.",
          "house": "7",
          "house_type": "",
          "apt": "10",
          "street2": "",
          "city_town": "ԱՐԱԲԿԻՐ",
          "postcode": "0012",
          "province": "ԵՐԵՎԱՆ",
          "community": "",
          "country_id": "AM",
          "phone": "233183",
          "mobile": "",
          "email": "",
          "website": "",
          "addr_descr": "Հայաստան, ԵՐԵՎԱՆ, ԱՐԱԲԿԻՐ, ՎՐԱՑԱԿԱՆ 4ՆՐԲ., 7, Բն. 10, 0051",
          "diff_from_res": 0
        },
        "company_type": "ՍՊԸ",
        "company_type_long": "Սահմանափակ պատասխանատվությամբ ընկերություն",
        "registration": "Permanent",
        "executive": {
          "full_name": "ԱՐԱՄ ՄԽԻԹԱՐՅԱՆ ԼԵՎՈՆԻ",
          "first_name": "ԱՐԱՄ",
          "last_name": "ՄԽԻԹԱՐՅԱՆ",
          "middle_name": "ԼԵՎՈՆԻ",
          "nationality_country_id": "AM",
          "identification_no": "AH0576825",
          "ssn": "1903820146",
          "address": {
            "street1": "ՎՐԱՑԱԿԱՆ 4 ՆՐԲ.",
            "house": "7",
            "house_type": "Շ",
            "apt": "10",
            "street2": "",
            "city_town": "ԱՐԱԲԿԻՐ",
            "postcode": "0012",
            "province": "ԵՐԵՎԱՆ",
            "community": "",
            "country_id": "AM",
            "phone": "095203078",
            "mobile": "",
            "email": "",
            "website": "",
            "addr_descr": "ՀԱՅԱՍՏԱՆ, ԵՐԵՎԱՆ, ԱՐԱԲԿԻՐ, ՎՐԱՑԱԿԱՆ 4 ՆՐԲ., Շ 7, Բն. 10",
            "diff_from_res": 0
          },
          "id_info": {
            "ssn": "1903820146",
            "birth_date": "1982-03-09",
            "sex": "Ա",
            "type": "NON_BIOMETRIC_PASSPORT",
            "passport_no": "AH0576825",
            "passport_issued_by": "004",
            "passport_issued": "2008-05-04",
            "taxid": "",
            "soc_num": "",
            "zcode": "",
            "hide_ssn": "0",
            "reg_date": ""
          },
          "exec_position": "Տնօրեն"
        },
        "owners": {
          "6116969": {
            "full_name": "ՄԽԻԹԱՐՅԱՆ ԱՐԱՄ",
            "first_name": "ՄԽԻԹԱՐՅԱՆ ԱՐԱՄ",
            "last_name": "",
            "middle_name": "",
            "nationality_country_id": "AM",
            "identification_no": "AH0576825",
            "ssn": "1903820146",
            "address": {
              "street1": "ՎՐԱՑԱԿԱՆ 4ՆՐԲ.7-10",
              "house": "",
              "house_type": "",
              "apt": "",
              "street2": "",
              "city_town": "",
              "postcode": "",
              "province": "",
              "community": "",
              "country_id": "AM",
              "phone": "",
              "mobile": "",
              "email": "",
              "website": "",
              "addr_descr": "",
              "diff_from_res": 0
            },
            "id_info": {
              "ssn": "1903820146",
              "birth_date": "1982-03-09",
              "sex": "Ա",
              "type": "",
              "passport_no": "AH0576825",
              "passport_issued_by": "004",
              "passport_issued": "2008-05-04",
              "taxid": "",
              "soc_num": "",
              "zcode": "",
              "hide_ssn": "",
              "reg_date": ""
            },
            "shares": 50000,
            "is_legal_entity": false,
            "resident": "resident",
            "is_founder": false,
            "joined_date": "2006-06-27",
            "left_date": "0000-00-00",
            "owner_cert_id": "",
            "id_num": 111570,
            "is_blocked": "0"
          }
        }
      }
    },
    "id": 1238
  }
]